{
  "name": "pyprobe",
  "version": "1.1.4",
  "slug": "prtg_pyprobe",
  "description": "pyprobe for PRTG Network Monitor.",
  "arch": [
    "armhf",
    "armv7",
    "aarch64",
    "amd64",
    "i386"
  ],
  "url": "https://gitlab.com/paessler-labs/prtg-pyprobe",
  "startup": "application",
  "boot": "auto",
  "options": {
    "disable_ssl_verification": false,
    "log_file_location": "",
    "log_level": "",
    "probe_access_key": "",
    "probe_access_key_hashed": "",
    "probe_base_interval": "60",
    "probe_gid": "",
    "probe_name": "",
    "probe_protocol_version": "1",
    "prtg_server_ip_dns": "",
    "prtg_server_port": "443",
    "probe_task_chunk_size": "20"
  },
  "schema": {
    "disable_ssl_verification": "bool",
    "log_file_location": "str",
    "log_level": "str",
    "probe_access_key": "str",
    "probe_access_key_hashed": "str",
    "probe_base_interval": "str",
    "probe_gid": "str",
    "probe_name": "str",
    "probe_protocol_version": "str",
    "prtg_server_ip_dns": "str",
    "prtg_server_port": "str",
    "probe_task_chunk_size": "str"
  }
}
